{
	"name": "The Hexa Compiler",
	"version": "1.0.0",
	"entry": "cli",
	"roots": ["source"],
	"global": [
		"compiler/normalizer",
		"compiler/typer",
		"compiler/lexer",
		"compiler/preprocessor",
		"compiler/parser",
		"tests/testLexer",
		"tests/testParser",
		"tests/testTyper",
		"targets/genJs",
		"targets/genC",
		"data/token",
		"data/nice",
		"data/decorator",
		"data/nodes",
		"data/nodeType",
		"data/data",
		"data/helper",
		"data/types",
		"data/project",
		"data/compilerError",
		"data/hints",
		"targets",
		"help",
		"repl",
		"main",
		"cli/symlink",
		"cli/init",
		"server"
	],
	"define":
	{
		"times": false,
		"debug": false
	},
	"output": "hexa-node.js",
	"license": "LGPL-3.0-only",
	"author": "Oleg (PeyTy)",
	"addLicenseNoticeToOutput": true,
	"randomSeed": 1,
	"targets": [
		{
			"name": "default",
			"generator": "js",
			"options": ["nodejs"],
			"output": "hexa-node.js"
		}
	]
}
